<?xml version="1.0" encoding="UTF-8" standalone="no"?>
<svg
   xmlns:dc="http://purl.org/dc/elements/1.1/"
   xmlns:cc="http://creativecommons.org/ns#"
   xmlns:rdf="http://www.w3.org/1999/02/22-rdf-syntax-ns#"
   xmlns:svg="http://www.w3.org/2000/svg"
   xmlns="http://www.w3.org/2000/svg"
   xmlns:sodipodi="http://sodipodi.sourceforge.net/DTD/sodipodi-0.dtd"
   xmlns:inkscape="http://www.inkscape.org/namespaces/inkscape"
   width="758px"
   height="758px"
   viewBox="0 0 758 758"
   version="1.1"
   id="svg987"
   sodipodi:docname="logo-square.svg"
   inkscape:version="0.92.3 (2405546, 2018-03-11)">
  <metadata
     id="metadata993">
    <rdf:RDF>
      <cc:Work
         rdf:about="">
        <dc:format>image/svg+xml</dc:format>
        <dc:type
           rdf:resource="http://purl.org/dc/dcmitype/StillImage" />
        <dc:title>CS-solid</dc:title>
      </cc:Work>
    </rdf:RDF>
  </metadata>
  <defs
     id="defs991" />
  <sodipodi:namedview
     pagecolor="#ffffff"
     bordercolor="#666666"
     borderopacity="1"
     objecttolerance="10"
     gridtolerance="10"
     guidetolerance="10"
     inkscape:pageopacity="0"
     inkscape:pageshadow="2"
     inkscape:window-width="1920"
     inkscape:window-height="1031"
     id="namedview989"
     showgrid="false"
     inkscape:zoom="0.31134565"
     inkscape:cx="379"
     inkscape:cy="379"
     inkscape:window-x="0"
     inkscape:window-y="25"
     inkscape:window-maximized="1"
     inkscape:current-layer="svg987" />
  <!-- Generator: Sketch 52.2 (67145) - http://www.bohemiancoding.com/sketch -->
  <title
     id="title975">CS-solid</title>
  <desc
     id="desc977">Created with Sketch.</desc>
  <g
     id="g1556">
    <rect
       y="0.78901505"
       x="0.78900522"
       height="756.422"
       width="756.42194"
       id="rect1550"
       style="fill:#5c4b7c;fill-opacity:1;stroke:#ffffff;stroke-width:1.57801044;stroke-miterlimit:4;stroke-dasharray:none;stroke-opacity:1" />
    <polyline
       transform="translate(176.71615,145.72104)"
       style="fill:none;fill-rule:evenodd;stroke:#ffffff;stroke-width:52.57329941;stroke-linecap:round;stroke-linejoin:round"
       points="1.13056601 163.607732 202.318266 1.18257158 403.505966 163.607732"
       id="Line" />
    <path
       d="m 499.90425,484.187 v -5.40323 C 473.32621,475.86311 458.2848,462.42806 458.2848,441.25325 v -25.11771 c 0,-19.13034 -6.1334,-26.13993 -23.51134,-26.13993 h -6.71753 v -36.50829 h 12.26679 c 48.04491,0 67.46732,16.50174 67.46732,56.66086 v 18.54622 c 0,20.59067 10.22232,28.91457 35.77813,29.0606 v 47.46078 c -25.70184,0.29206 -35.77813,8.61595 -35.77813,29.0606 v 17.37794 c 0,41.03532 -19.56844,58.12121 -67.46732,58.12121 h -12.26679 v -36.5083 h 6.71753 c 17.23191,0 23.51134,-7.00959 23.51134,-25.9939 v -25.5558 c 0,-21.17481 15.04141,-34.60987 41.61945,-37.53053 z"
       id="Path"
       inkscape:connector-curvature="0"
       style="fill:#ffffff;fill-rule:evenodd;stroke:none;stroke-width:1" />
    <path
       d="m 258.23342,484.187 c 26.57803,2.92066 41.47342,16.35572 41.47342,37.53053 v 25.5558 c 0,19.13034 6.27942,25.9939 23.65737,25.9939 h 6.71753 v 36.5083 h -12.26679 c -48.04491,0 -67.61336,-16.93985 -67.61336,-57.82914 v -17.67001 c 0,-20.44465 -10.07628,-28.76854 -35.63209,-29.0606 V 457.755 c 25.40977,-0.14603 35.63209,-8.46993 35.63209,-29.0606 v -18.54622 c 0,-40.15912 19.56845,-56.66086 67.61336,-56.66086 h 12.26679 v 36.50829 h -6.71753 c -17.37795,0 -23.65737,7.00959 -23.65737,26.13993 v 25.11771 c 0,21.17481 -14.89539,34.60986 -41.47342,37.53052 z"
       id="path982"
       inkscape:connector-curvature="0"
       style="fill:#ffffff;fill-rule:evenodd;stroke:none;stroke-width:1" />
  </g>
</svg>
